#High-density areas
# 78731
# 60614
# 60660
# 90064
# 10013
# 10128
# 10029
# 94103
# 94115
# 98005
# 98119
# 19140
# 19147
# 19106
# 85020
# 85009
# 85034
# 78229
# 78217
# 78264
# 77587
# 77094
# 77008
# 78702
# 78703
# 72076
# 32216
# 32034
# 32204
# 46221
# 46217
# 46268
# 43229
# 43231
# 43026
# 75212
# 48211
# 48120
# 48212
# 80223
# #All States
# #Alabama
# 36117
# #Alaska 
# 99507
# #Arizona 
# 85003
# #Arkansas 
# 72211
# #California 
# 94112
# #Colorado 
# 80207
# #Connecticut 
# 06605
# #Delaware 
# 19806
# #Florida
# 33133 
# #Georgia 
# 30305
# #Hawaii
# 96826 
# #Idaho 
# 83706
# #Illinois 
# 60657
#Indiana 
46280
#Iowa 
50312
#Kansas
67218 
#Kentucky 
40218
#Louisiana 
70115
#Maine 
04102
#Maryland 
21224
#Massachusetts 
02116
#Michigan 
48208
#Minnesota 
55405
#Mississippi
39211 
#Missouri 
64108
#Montana 
59105
#Nebraska 
68164
#Nevada
89117 
#New Hampshire 
03103
#New Jersey 
07018
#New Mexico 
87110
#New York 
11221
#North Carolina 
28203
#North Dakota
58103 
#Ohio
44109 
#Oklahoma 
73120
#Oregon 
97210
#Pennsylvania
15216 
#Rhode Island 
02903
#South Carolina 
29201
#South Dakota 
57108
#Tennessee
37205 
#Texas
77006 
#Utah 
84105
#Vermont
05403 
#Virginia 
23453
#Washington
98102
#West Virginia
25302 
#Wisconsin 
53209
#Wyoming
82001